{
    "name": "GameplayActions",
    "maps": [
        {
            "name": "Gameplay",
            "id": "0fecc52c-4039-41f8-9612-f209e1a423c2",
            "actions": [
                {
                    "name": "Movement",
                    "type": "Value",
                    "id": "9925a8cd-ebb4-4e06-9c72-4304a3f948a9",
                    "expectedControlType": "Vector2",
                    "processors": "",
                    "interactions": ""
                },
                {
                    "name": "Interaction",
                    "type": "Button",
                    "id": "fe64968a-17c8-49f5-a9eb-46e4a5566c81",
                    "expectedControlType": "Button",
                    "processors": "",
                    "interactions": ""
                }
            ],
            "bindings": [
                {
                    "name": "2D Vector",
                    "id": "cf05fcc0-931d-4066-abe5-db37e6314312",
                    "path": "2DVector",
                    "interactions": "",
                    "processors": "",
                    "groups": "",
                    "action": "Movement",
                    "isComposite": true,
                    "isPartOfComposite": false
                },
                {
                    "name": "up",
                    "id": "46eac9be-707e-4f53-8cf4-9f42d1606d83",
                    "path": "<Keyboard>/upArrow",
                    "interactions": "",
                    "processors": "",
                    "groups": "",
                    "action": "Movement",
                    "isComposite": false,
                    "isPartOfComposite": true
                },
                {
                    "name": "down",
                    "id": "5cf4f29d-7e09-4b3e-b4ad-169e622a0619",
                    "path": "<Keyboard>/downArrow",
                    "interactions": "",
                    "processors": "",
                    "groups": "",
                    "action": "Movement",
                    "isComposite": false,
                    "isPartOfComposite": true
                },
                {
                    "name": "left",
                    "id": "fe213748-8ce4-484b-a3a6-d72a844b4691",
                    "path": "<Keyboard>/leftArrow",
                    "interactions": "",
                    "processors": "",
                    "groups": "",
                    "action": "Movement",
                    "isComposite": false,
                    "isPartOfComposite": true
                },
                {
                    "name": "right",
                    "id": "eb87b41f-dab2-49e8-aa9e-0e17f7d80b99",
                    "path": "<Keyboard>/rightArrow",
                    "interactions": "",
                    "processors": "",
                    "groups": "",
                    "action": "Movement",
                    "isComposite": false,
                    "isPartOfComposite": true
                },
                {
                    "name": "",
                    "id": "86fb26db-823a-43f1-ae4e-f0159df8ea30",
                    "path": "<Keyboard>/space",
                    "interactions": "",
                    "processors": "",
                    "groups": "",
                    "action": "Interaction",
                    "isComposite": false,
                    "isPartOfComposite": false
                }
            ]
        }
    ],
    "controlSchemes": []
}